വകുപ്പ്‌ 1. മനുഷ്യരെല്ലാവരും തുല്യാവകാശങ്ങളോടും അന്തസ്സോടും സ്വാതന്ത്ര്യത്തോടുംകൂടി ജനിച്ചിട്ടുള്ളവരാണ്‌. അന്യോന്യം ഭ്രാതൃഭാവത്തോടെ പെരുമാറുവാനാണ്‌ മനുഷ്യന്നു വിവേകബുദ്ധിയും മനസ്സാക്ഷിയും സിദ്ധമായിരിക്കുന്നത്‌.

വകുപ്പ്‌ 2. ജാതി, മതം, നിറം, ഭാഷ, സ്ത്രീപുരുഷഭേദം, രാഷ്ട്രീയാഭിപ്രായം സ്വത്ത്‌, കുലം എന്നിവയെ കണക്കാക്കാതെ ഈ പ്രഖ്യാപനത്തില്‍ പറയുന്ന അവകാശങ്ങള്‍ക്കും സ്വാതന്ത്ര്യത്തിനും സര്‍വ്വജനങ്ങളും അര്‍ഹരാണ്‌. രാഷ്ട്രീയ സ്ഥിതിയെ അടിസ്ഥാനമാക്കി (സ്വതന്ത്രമോ, പരിമിത ഭരണാധികാരത്തോടു കൂടിയതോ ഏതായാലും വേണ്ടതില്ല) ഈ പ്രഖ്യാപനത്തിലെ അവകാശങ്ങളെ സംബന്ധിച്ചേടത്തോളം യാതൊരു വ്യത്യാസവും യാതൊരാളോടും കാണിക്കാന്‍ പാടുള്ളതല്ല.

ഈ ലേഖനം സി.വി. രാമൻ എന്ന ഭൗതികശാസ്ത്രജ്ഞനെക്കുറിച്ചുള്ളതാണ്.

ഈ ലേഖനം ജി.എൻ. രാമചന്ദ്രൻ എന്ന ഭൗതികശാസ്ത്രജ്ഞനെക്കുറിച്ചുള്ളതാണ്.
ഈ ലേഖനം എൻ. രാമചന്ദ്രൻ എന്ന ഭൗതികശാസ്ത്രജ്ഞനെക്കുറിച്ചുള്ളതാണ്.
